# Blender v2.77 (sub 0) OBJ File: ''
# www.blender.org
mtllib cube.mtl
o Cube
v 1.000000 -1.000000 -1.000000
v 1.000000 -1.000000 1.000000
v -1.000000 -1.000000 1.000000
v -1.000000 -1.000000 -1.000000
v 1.000000 1.000000 -0.999999
v 0.999999 1.000000 1.000001
v -1.000000 1.000000 1.000000
v -1.000000 1.000000 -1.000000
vt 0.5000 0.7500
vt 0.5000 0.5000
vt 0.7500 0.5000
vt 0.7500 0.7500
vt 0.2500 0.7500
vt 0.0001 0.7500
vt 0.0001 0.5000
vt 0.2500 0.5000
vt 0.2500 0.2500
vt 0.5000 0.2500
vt 0.2500 0.0001
vt 0.5000 0.0001
vt 0.5000 0.9999
vt 0.2500 0.9999
vn 0.0000 -1.0000 0.0000
vn 0.0000 1.0000 0.0000
vn 1.0000 0.0000 0.0000
vn -0.0000 -0.0000 1.0000
vn -1.0000 -0.0000 -0.0000
vn 0.0000 0.0000 -1.0000
usemtl Material
s off
f 1/1/1 2/2/1 3/3/1 4/4/1
f 5/5/2 8/6/2 7/7/2 6/8/2
f 1/1/3 5/5/3 6/8/3 2/2/3
f 2/2/4 6/8/4 7/9/4 3/10/4
f 3/10/5 7/9/5 8/11/5 4/12/5
f 5/5/6 1/1/6 4/13/6 8/14/6
