# Wavefront Obj file
# 
# verts: 52 uv-s: 140
mtllib Wall.mtl

g Cube_Cube.001

v -2.324304 0.003382 0.277639
v -2.324304 2.003382 0.277639
v -2.324304 0.003382 -0.277639
v -2.324304 2.003382 -0.277639
v 2.324304 0.003382 0.277639
v 2.324304 2.003382 0.277639
v 2.324304 0.003382 -0.277639
v 2.324304 2.003382 -0.277639
v -1.719985 2.003382 -0.277639
v -1.138909 2.003382 -0.277639
v -0.557833 2.003382 -0.277639
v 0.023243 2.003382 -0.277639
v 0.604319 2.003382 -0.277639
v 1.185395 2.003382 -0.277639
v 1.766471 2.003382 -0.277639
v 1.766471 0.003382 -0.277639
v 1.185395 0.003382 -0.277639
v 0.604319 0.003382 -0.277639
v 0.023243 0.003382 -0.277639
v -0.557833 0.003382 -0.277639
v -1.138909 0.003382 -0.277639
v -1.719985 0.003382 -0.277639
v 1.766471 2.003382 0.277639
v 1.185395 2.003382 0.277639
v 0.604319 2.003382 0.277639
v 0.023243 2.003382 0.277639
v -0.557833 2.003382 0.277639
v -1.138909 2.003382 0.277639
v -1.719985 2.003382 0.277639
v -1.719985 0.003382 0.277639
v -1.138909 0.003382 0.277639
v -0.557833 0.003382 0.277639
v 0.023243 0.003382 0.277639
v 0.604319 0.003382 0.277639
v 1.185395 0.003382 0.277639
v 1.766471 0.003382 0.277639
v -2.324304 2.429692 0.277639
v -2.324304 2.429692 -0.277639
v -1.719985 2.429692 0.277639
v -1.719985 2.429692 -0.277639
v -1.138909 2.429692 -0.277639
v -0.557833 2.429692 -0.277639
v 0.023243 2.429692 -0.277639
v 0.604319 2.429692 -0.277639
v 1.185395 2.429692 -0.277639
v 1.766471 2.429692 -0.277639
v 1.766471 2.429692 0.277639
v 1.185395 2.429692 0.277639
v 0.604319 2.429692 0.277639
v 0.023243 2.429692 0.277639
v -0.557833 2.429692 0.277639
v -1.138909 2.429692 0.277639
# 52 positions

vt 0.785103 0.821140
vt 0.678747 0.821140
vt 0.678747 0.438067
vt 0.785103 0.438067
vt 0.432519 0.134767
vt 0.432292 0.017860
vt 0.013143 0.018678
vt 0.013371 0.135585
vt 0.679276 0.044421
vt 0.784574 0.044421
vt 0.784574 0.423682
vt 0.679276 0.423682
vt 0.433947 0.865439
vt 0.434195 0.992087
vt 0.015045 0.992906
vt 0.014797 0.866257
vt 0.660168 0.155267
vt 0.548355 0.155047
vt 0.548575 0.042718
vt 0.660389 0.042939
vt 0.433947 0.865439
vt 0.434195 0.992087
vt 0.523538 0.991912
vt 0.523291 0.865264
vt 0.801610 0.007953
vt 0.872776 0.007927
vt 0.872814 0.079438
vt 0.801620 0.079460
vt 0.872892 0.263357
vt 0.801630 0.263370
vt 0.801629 0.208667
vt 0.872871 0.208652
vt 0.801630 0.263370
vt 0.872892 0.263357
vt 0.872912 0.337942
vt 0.801633 0.337951
vt 0.432757 0.256546
vt 0.522101 0.256372
vt 0.521864 0.134593
vt 0.801630 0.522043
vt 0.872947 0.522040
vt 0.872953 0.596677
vt 0.801628 0.596678
vt 0.801620 0.079460
vt 0.872814 0.079438
vt 0.872842 0.134109
vt 0.801623 0.134128
vt 0.801618 0.780858
vt 0.872957 0.780861
vt 0.872955 0.855515
vt 0.801615 0.855512
vt 0.658549 0.978965
vt 0.546755 0.978751
vt 0.546987 0.857080
vt 0.658786 0.857295
vt 0.547211 0.740082
vt 0.659015 0.740298
vt 0.547437 0.623080
vt 0.659246 0.623299
vt 0.547666 0.506075
vt 0.659477 0.506294
vt 0.547894 0.389066
vt 0.659708 0.389287
vt 0.548124 0.272057
vt 0.659939 0.272277
vt 0.432292 0.017860
vt 0.432519 0.134767
vt 0.013371 0.135585
vt 0.013143 0.018678
vt 0.432757 0.256546
vt 0.013609 0.257364
vt 0.432995 0.378324
vt 0.013846 0.379142
vt 0.433233 0.500102
vt 0.014083 0.500921
vt 0.433471 0.621881
vt 0.014321 0.622699
vt 0.433709 0.743659
vt 0.014559 0.744478
vt 0.014797 0.866257
vt 0.015045 0.992906
vt 0.433709 0.743659
vt 0.014559 0.744478
vt 0.433471 0.621881
vt 0.014321 0.622699
vt 0.433233 0.500102
vt 0.014083 0.500921
vt 0.432995 0.378324
vt 0.013846 0.379142
vt 0.013609 0.257364
vt 0.801613 0.910283
vt 0.872953 0.910286
vt 0.872950 0.987927
vt 0.801610 0.987924
vt 0.801623 0.134128
vt 0.872842 0.134109
vt 0.872871 0.208652
vt 0.801629 0.208667
vt 0.801632 0.392681
vt 0.872926 0.392674
vt 0.872938 0.467289
vt 0.801632 0.467294
vt 0.801625 0.651441
vt 0.872956 0.651441
vt 0.872957 0.726091
vt 0.801621 0.726089
vt 0.521864 0.134593
vt 0.522101 0.256372
vt 0.801633 0.337951
vt 0.872912 0.337942
vt 0.872926 0.392674
vt 0.801632 0.392681
vt 0.872947 0.522040
vt 0.801630 0.522043
vt 0.801632 0.467294
vt 0.872938 0.467289
vt 0.523052 0.743484
vt 0.522815 0.621706
vt 0.522339 0.378150
vt 0.522577 0.499928
vt 0.801628 0.596678
vt 0.872953 0.596677
vt 0.872956 0.651441
vt 0.801625 0.651441
vt 0.872957 0.780861
vt 0.801618 0.780858
vt 0.801621 0.726089
vt 0.872957 0.726091
vt 0.785103 0.902794
vt 0.678747 0.902794
vt 0.522577 0.499928
vt 0.522339 0.378150
vt 0.522815 0.621706
vt 0.523052 0.743484
vt 0.801615 0.855512
vt 0.872955 0.855515
vt 0.872953 0.910286
vt 0.801613 0.910283
vt 0.523291 0.865264
vt 0.523538 0.991912
# 140 texture coordinates

vn -1.000000 -0.000000 -0.000000
vn -0.000000 -0.000000 -1.000000
vn 1.000000 -0.000000 -0.000000
vn -0.000000 -0.000000 1.000000
vn -0.000000 -1.000000 -0.000000
vn -0.000000 1.000000 -0.000000
# 6 normals

usemtl None_uv
f 2/1/1 4/2/1 3/3/1 1/4/1
f 15/5/2 8/6/2 7/7/2 16/8/2
f 8/9/3 6/10/3 5/11/3 7/12/3
f 29/13/4 2/14/4 1/15/4 30/16/4
f 36/17/5 16/18/5 7/19/5 5/20/5
f 9/21/2 4/22/2 38/23/2 40/24/2
f 6/25/6 8/26/6 15/27/6 23/28/6
f 14/29/1 24/30/1 48/31/1 45/32/1
f 24/33/6 14/34/6 13/35/6 25/36/6
f 15/5/2 14/37/2 45/38/2 46/39/2
f 26/40/6 12/41/6 11/42/6 27/43/6
f 23/44/3 15/45/3 46/46/3 47/47/3
f 28/48/6 10/49/6 9/50/6 29/51/6
f 1/52/5 3/53/5 22/54/5 30/55/5
f 30/55/5 22/54/5 21/56/5 31/57/5
f 31/57/5 21/56/5 20/58/5 32/59/5
f 32/59/5 20/58/5 19/60/5 33/61/5
f 33/61/5 19/60/5 18/62/5 34/63/5
f 34/63/5 18/62/5 17/64/5 35/65/5
f 35/65/5 17/64/5 16/18/5 36/17/5
f 6/66/4 23/67/4 36/68/4 5/69/4
f 23/67/4 24/70/4 35/71/4 36/68/4
f 24/70/4 25/72/4 34/73/4 35/71/4
f 25/72/4 26/74/4 33/75/4 34/73/4
f 26/74/4 27/76/4 32/77/4 33/75/4
f 27/76/4 28/78/4 31/79/4 32/77/4
f 28/78/4 29/13/4 30/16/4 31/79/4
f 4/22/2 9/21/2 22/80/2 3/81/2
f 9/21/2 10/82/2 21/83/2 22/80/2
f 10/82/2 11/84/2 20/85/2 21/83/2
f 11/84/2 12/86/2 19/87/2 20/85/2
f 12/86/2 13/88/2 18/89/2 19/87/2
f 13/88/2 14/37/2 17/90/2 18/89/2
f 14/37/2 15/5/2 16/8/2 17/90/2
f 39/91/6 40/92/6 38/93/6 37/94/6
f 47/95/6 46/96/6 45/97/6 48/98/6
f 49/99/6 44/100/6 43/101/6 50/102/6
f 51/103/6 42/104/6 41/105/6 52/106/6
f 24/70/4 23/67/4 47/107/4 48/108/4
f 25/109/3 13/110/3 44/111/3 49/112/3
f 12/113/1 26/114/1 50/115/1 43/116/1
f 11/84/2 10/82/2 41/117/2 42/118/2
f 26/74/4 25/72/4 49/119/4 50/120/4
f 27/121/3 11/122/3 42/123/3 51/124/3
f 10/125/1 28/126/1 52/127/1 41/128/1
f 4/2/1 2/1/1 37/129/1 38/130/1
f 13/88/2 12/86/2 43/131/2 44/132/2
f 28/78/4 27/76/4 51/133/4 52/134/4
f 29/135/3 9/136/3 40/137/3 39/138/3
f 2/14/4 29/13/4 39/139/4 37/140/4

# 50 faces
